<svg width="11" height="11" viewBox="0 0 11 11" fill="none" xmlns="http://www.w3.org/2000/svg">
<path d="M8.94866 0.199951H1.65173C0.827886 0.199951 0.200195 0.827644 0.200195 1.65149V8.94841C0.200195 9.77226 0.827886 10.4 1.65173 10.4H8.94866C9.7725 10.4 10.4002 9.77226 10.4002 8.94841V1.65149C10.4002 0.827644 9.7725 0.199951 8.94866 0.199951ZM5.3002 8.35995C6.98712 8.35995 8.3602 7.0261 8.3602 5.41764C8.3602 5.14303 8.32096 4.82918 8.2425 4.5938H9.10558V8.75226C9.10558 8.94841 8.94866 9.14457 8.71327 9.14457H1.88712C1.69097 9.14457 1.49481 8.98764 1.49481 8.75226V4.55457H2.39712C2.31866 4.82918 2.27943 5.1038 2.27943 5.37841C2.2402 7.02611 3.61327 8.35995 5.3002 8.35995ZM5.3002 7.18303C4.20173 7.18303 3.33866 6.31995 3.33866 5.26072C3.33866 4.20149 4.20173 3.33841 5.3002 3.33841C6.39866 3.33841 7.26173 4.20149 7.26173 5.26072C7.26173 6.35918 6.39866 7.18303 5.3002 7.18303ZM9.06635 2.98534C9.06635 3.22072 8.8702 3.41687 8.63481 3.41687H7.53635C7.30096 3.41687 7.10481 3.22072 7.10481 2.98534V1.9261C7.10481 1.69072 7.30096 1.49457 7.53635 1.49457H8.63481C8.8702 1.49457 9.06635 1.69072 9.06635 1.9261V2.98534Z" fill="#381E19"/>
</svg>
