<svg width="385" height="386" viewBox="0 0 385 386" fill="none" xmlns="http://www.w3.org/2000/svg">
<circle cx="192.753" cy="192.846" r="191.071" stroke="#211D1E" stroke-width="2.24131" stroke-dasharray="2.24 2.24"/>
<rect y="169" width="10" height="42" fill="#FAFAFA"/>
<rect x="298.655" y="40.9403" width="23.3338" height="42.5848" transform="rotate(-32.7242 298.655 40.9403)" fill="#FAFAFA"/>
<rect x="349.83" y="281.938" width="14.0646" height="42.5848" transform="rotate(24.3451 349.83 281.938)" fill="#FAFAFA"/>
</svg>
