<svg width="13" height="8" viewBox="0 0 13 8" fill="none" xmlns="http://www.w3.org/2000/svg">
<path d="M12.8836 7.0693C12.8836 7.01948 12.8338 7.01949 12.8338 6.96967C12.6345 6.57116 12.1862 6.07303 11.5884 5.52508C11.2896 5.27601 11.1401 5.07675 11.0405 4.97712C10.8911 4.77787 10.8911 4.62843 10.9409 4.42918C10.9907 4.27973 11.1899 4.03066 11.5386 3.58234C11.7379 3.33327 11.8375 3.18383 11.987 3.03439C12.7342 2.03811 13.0829 1.39053 12.9832 1.09165L12.9334 1.04184C12.8836 0.992025 12.8338 0.942213 12.7342 0.942213C12.6345 0.892399 12.4851 0.892399 12.3357 0.942213H10.4427C10.3929 0.942213 10.3929 0.942213 10.2933 0.942213C10.2435 0.942213 10.1937 0.942213 10.1937 0.942213H10.1439H10.094L10.0442 0.992022C9.99441 1.04184 9.9944 1.04183 9.9944 1.09165C9.79515 1.6396 9.54608 2.08792 9.29701 2.58606C9.14757 2.83513 8.99813 3.0842 8.84869 3.28346C8.69925 3.48271 8.59962 3.63215 8.49999 3.73178C8.40036 3.83141 8.30074 3.88122 8.25092 3.98085C8.20111 4.03066 8.10149 4.08048 8.10149 4.03066C8.05167 4.03066 8.00185 4.03066 8.00185 3.98085C7.95204 3.93103 7.90223 3.88122 7.85242 3.8314C7.8026 3.78159 7.8026 3.68196 7.75278 3.58234C7.75278 3.48271 7.75278 3.38308 7.75278 3.33327C7.75278 3.28345 7.75278 3.13402 7.75278 3.03439C7.75278 2.88495 7.75278 2.78532 7.75278 2.7355C7.75278 2.58606 7.75278 2.38681 7.75278 2.18756C7.75278 1.9883 7.75278 1.83886 7.75278 1.73923C7.75278 1.6396 7.75278 1.49016 7.75278 1.39053C7.75278 1.24109 7.75278 1.14146 7.75278 1.09165C7.75278 1.04183 7.70298 0.94221 7.70298 0.892396C7.65317 0.842582 7.60335 0.792767 7.55353 0.742953C7.50372 0.693139 7.40409 0.693141 7.35428 0.643327C7.10521 0.593513 6.80634 0.543701 6.45764 0.543701C5.66062 0.543701 5.11266 0.593516 4.91341 0.693144C4.81378 0.742958 4.71415 0.792768 4.66434 0.892396C4.56471 0.992023 4.56471 1.04184 4.61452 1.04184C4.86359 1.09165 5.06285 1.19128 5.16248 1.34072L5.21229 1.44035C5.26211 1.49016 5.2621 1.58979 5.31191 1.73923C5.36173 1.88867 5.36173 2.03811 5.36173 2.23737C5.36173 2.53625 5.36173 2.83513 5.36173 3.03439C5.36173 3.28346 5.31191 3.43289 5.31191 3.58234C5.31191 3.73178 5.26211 3.83141 5.21229 3.88122C5.16248 3.98085 5.16248 4.03066 5.11266 4.03066C5.11266 4.03066 5.11266 4.08047 5.06284 4.08047C5.01303 4.08047 4.96322 4.13029 4.86359 4.13029C4.81378 4.13029 4.71415 4.08048 4.66434 4.03066C4.56471 3.98085 4.46509 3.88122 4.41527 3.7816C4.31564 3.68197 4.21601 3.53252 4.11639 3.33327C4.01676 3.13401 3.86731 2.93476 3.76768 2.63588L3.66807 2.43663C3.61825 2.337 3.51862 2.13774 3.419 1.88867C3.31937 1.6396 3.21974 1.44035 3.12011 1.19128C3.0703 1.09165 3.02049 1.04184 2.97068 0.992022H2.92086C2.92086 0.992022 2.87104 0.942213 2.82123 0.942213C2.77141 0.942213 2.7216 0.892396 2.67179 0.892396H0.878492C0.679237 0.892396 0.579611 0.942208 0.529797 0.992022L0.47998 1.04184C0.47998 1.04184 0.47998 1.09165 0.47998 1.14146C0.47998 1.19128 0.479984 1.24109 0.529797 1.34072C0.778866 1.93848 1.07775 2.53625 1.37663 3.13401C1.67551 3.68197 1.9744 4.18011 2.17365 4.5288C2.42272 4.8775 2.62197 5.22619 2.87104 5.52508C3.12011 5.82396 3.26955 6.02321 3.31936 6.12284C3.41899 6.22247 3.4688 6.27228 3.51862 6.32209L3.66807 6.47154C3.76769 6.57116 3.91713 6.72061 4.11639 6.87005C4.31564 7.01949 4.56471 7.16893 4.81378 7.31837C5.06284 7.46781 5.36173 7.56744 5.66062 7.66707C6.00931 7.7667 6.30819 7.81651 6.60707 7.7667H7.35428C7.50372 7.7667 7.60336 7.71688 7.70298 7.61725L7.75278 7.56744C7.75278 7.51762 7.8026 7.51762 7.8026 7.46781C7.8026 7.418 7.8026 7.36819 7.8026 7.26856C7.8026 7.0693 7.8026 6.91986 7.85242 6.77042C7.90223 6.62098 7.90224 6.52135 7.95205 6.42173C8.00187 6.3221 8.05167 6.27228 8.10149 6.22247C8.1513 6.17265 8.20112 6.12284 8.20112 6.12284H8.25092C8.35055 6.07303 8.5 6.12284 8.59962 6.22247C8.74907 6.32209 8.8985 6.47154 8.99813 6.62098C9.09776 6.77042 9.24721 6.91986 9.44646 7.11912C9.64572 7.31837 9.79516 7.46781 9.89478 7.51763L10.0442 7.61725C10.1438 7.66707 10.2435 7.71688 10.3929 7.7667C10.5424 7.81651 10.642 7.81651 10.7416 7.81651L12.4353 7.7667C12.5847 7.7667 12.7342 7.71688 12.8338 7.66707C12.9334 7.61726 12.9832 7.56744 12.9832 7.46781C12.9832 7.418 12.9832 7.31837 12.9832 7.26856C12.8836 7.16893 12.8836 7.11911 12.8836 7.0693Z" fill="#381E19"/>
</svg>
